^C:\USERS\JABAH\SOURCE\REPOS\EX_17.5\DEBUG\EX_17.5.OBJ
C:\USERS\JABAH\SOURCE\REPOS\EX_17.5\DEBUG\EX_17.5.EXE
C:\USERS\JABAH\SOURCE\REPOS\EX_17.5\DEBUG\EX_17.5.ILK
C:\USERS\JABAH\SOURCE\REPOS\EX_17.5\DEBUG\EX_17.5.PDB
